<svg width="248" height="189" viewBox="0 0 248 189" fill="none" xmlns="http://www.w3.org/2000/svg">
<path d="M10.0225 178.116C16.7043 184.797 24.7653 188.139 34.2083 188.139H205.243C214.687 188.139 222.749 184.797 229.428 178.116C236.107 171.437 239.448 163.375 239.448 153.932H0C0.00187204 163.375 3.34254 171.437 10.0225 178.116Z" fill="#ECDCCA"/>
<path d="M64.1391 136.828H158.207C166.401 136.828 173.438 133.889 179.319 128.009C185.198 122.13 188.138 115.092 188.138 106.897V102.622H196.687C210.852 102.622 222.947 97.6126 232.967 87.5901C242.987 77.5682 248 65.4762 248 51.3127C248 37.1474 242.987 25.0536 232.967 15.033C222.948 5.0124 210.852 0 196.687 0H42.7589C40.4436 0 38.4396 0.848036 36.7464 2.53849C35.054 4.23129 34.2079 6.23671 34.2079 8.55243V106.896C34.2079 115.091 37.147 122.129 43.0266 128.009C48.9062 133.889 55.9437 136.828 64.1391 136.828ZM188.138 25.6578H196.69C203.817 25.6578 209.875 28.1523 214.862 33.1399C219.849 38.1289 222.345 44.1854 222.345 51.3132C222.345 58.4373 219.849 64.4952 214.862 69.4861C209.875 74.4737 203.817 76.9686 196.69 76.9686H188.138V25.6578Z" fill="#ECDCCA"/>
</svg>
